FromCity,ToCity,Distance,Travel Time,Airfare
Delhi,Mumbai,1148,2:10,INR6000
Delhi,London,6704,8:55,INR37000
Delhi,Frankfurt,6117,8:35,INR32000
Los Angeles,Tokyo,8773,11:15,USD520
Frankfurt,London,660,1:25,EUR155
Mumbai,London,7187,9:30,INR28000
London,Sydney,6704,8:55,GBP600
London,San Francisco,8620,11:05,GBP345
San Francisco,Sydney,11935,14:35,USD450